EESchema Schematic File Version 4
EELAYER 30 0
EELAYER END
$Descr A3 16535 11693
encoding utf-8
Sheet 1 1
Title "CPLDICY"
Date "2021-03-05"
Rev "0.3"
Comp "Henryk Richter"
Comment1 ""
Comment2 ""
Comment3 ""
Comment4 ""
$EndDescr
$Comp
L CPLDICY-rescue:zorro2port-Zorro CON-Z21
U 1 1 5FE32A24
P 5850 1350
F 0 "CON-Z21" V 4922 1140 60  0001 C CNN
F 1 "zorro2port" V 5028 1140 60  0000 C CNN
F 2 "zorro:zorro2card" H 5850 5050 60  0000 C CNN
F 3 "" H 5850 5050 60  0000 C CNN
	1    5850 1350
	0    -1   -1   0   
$EndComp
$Comp
L CPLD_Xilinx:XC9572XL-VQ64 U1
U 1 1 5FE416BD
P 10450 5500
F 0 "U1" H 10450 7381 50  0000 C CNN
F 1 "XC9572XL-VQ64" H 10450 7290 50  0000 C CNN
F 2 "Package_QFP:TQFP-64_10x10mm_P0.5mm" H 10450 5500 50  0001 C CNN
F 3 "http://www.xilinx.com/support/documentation/data_sheets/ds057.pdf" H 10450 5500 50  0001 C CNN
F 4 "217-XC9572XL-10VQ64C " H 10450 5500 50  0001 C CNN "Mouser"
	1    10450 5500
	1    0    0    -1  
$EndComp
$Comp
L Interface_Expansion:PCF8584 U2
U 1 1 5FE46BBC
P 14250 5450
F 0 "U2" H 14250 5600 50  0000 C CNN
F 1 "PCF8584" H 14250 5500 50  0000 C CNN
F 2 "Package_SO:SOIC-20W_7.5x12.8mm_P1.27mm" H 14250 5450 50  0001 C CNN
F 3 "http://www.nxp.com/documents/data_sheet/PCF8584.pdf" H 14250 5450 50  0001 C CNN
F 4 "771-PCF8584TD-T" H 14250 5450 50  0001 C CNN "Mouser"
	1    14250 5450
	1    0    0    -1  
$EndComp
$Comp
L Regulator_Linear:LD1117S33TR_SOT223 U3
U 1 1 5FE48985
P 10250 7900
F 0 "U3" H 10250 8142 50  0000 C CNN
F 1 "LD1117S33TR_SOT223" H 10250 8051 50  0000 C CNN
F 2 "Package_TO_SOT_SMD:SOT-223-3_TabPin2" H 10250 8100 50  0001 C CNN
F 3 "http://www.st.com/st-web-ui/static/active/en/resource/technical/document/datasheet/CD00000544.pdf" H 10350 7650 50  0001 C CNN
F 4 "511-LD1117S33" H 10250 7900 50  0001 C CNN "Mouser"
	1    10250 7900
	1    0    0    -1  
$EndComp
$Comp
L power:GND #PWR0101
U 1 1 5FE537DE
P 850 1050
F 0 "#PWR0101" H 850 800 50  0001 C CNN
F 1 "GND" H 855 877 50  0000 C CNN
F 2 "" H 850 1050 50  0001 C CNN
F 3 "" H 850 1050 50  0001 C CNN
	1    850  1050
	1    0    0    -1  
$EndComp
Wire Wire Line
	1050 1350 1050 1050
Wire Wire Line
	1050 1050 850  1050
Wire Wire Line
	1150 1350 1150 1050
Wire Wire Line
	1150 1050 1050 1050
Connection ~ 1050 1050
$Comp
L power:+5V #PWR0102
U 1 1 5FE549E4
P 1250 1050
F 0 "#PWR0102" H 1250 900 50  0001 C CNN
F 1 "+5V" H 1265 1223 50  0000 C CNN
F 2 "" H 1250 1050 50  0001 C CNN
F 3 "" H 1250 1050 50  0001 C CNN
	1    1250 1050
	1    0    0    -1  
$EndComp
Wire Wire Line
	1250 1350 1250 1050
$Comp
L power:GND #PWR0104
U 1 1 5FE57136
P 6100 1100
F 0 "#PWR0104" H 6100 850 50  0001 C CNN
F 1 "GND" H 6105 927 50  0000 C CNN
F 2 "" H 6100 1100 50  0001 C CNN
F 3 "" H 6100 1100 50  0001 C CNN
	1    6100 1100
	1    0    0    -1  
$EndComp
Wire Wire Line
	6300 1350 6300 1100
Wire Wire Line
	6300 1100 6200 1100
Wire Wire Line
	6100 1100 5950 1100
Wire Wire Line
	5950 1100 5950 1350
Connection ~ 6100 1100
Wire Wire Line
	6200 1350 6200 1100
Connection ~ 6200 1100
Wire Wire Line
	6200 1100 6100 1100
$Comp
L power:GND #PWR0105
U 1 1 5FE58787
P 4650 750
F 0 "#PWR0105" H 4650 500 50  0001 C CNN
F 1 "GND" H 4655 577 50  0000 C CNN
F 2 "" H 4650 750 50  0001 C CNN
F 3 "" H 4650 750 50  0001 C CNN
	1    4650 750 
	-1   0    0    1   
$EndComp
$Comp
L power:GND #PWR0106
U 1 1 5FE58FA5
P 4050 750
F 0 "#PWR0106" H 4050 500 50  0001 C CNN
F 1 "GND" H 4055 577 50  0000 C CNN
F 2 "" H 4050 750 50  0001 C CNN
F 3 "" H 4050 750 50  0001 C CNN
	1    4050 750 
	-1   0    0    1   
$EndComp
Wire Wire Line
	2850 1350 2850 1150
$Comp
L power:GND #PWR0107
U 1 1 5FE5A14F
P 2850 1150
F 0 "#PWR0107" H 2850 900 50  0001 C CNN
F 1 "GND" H 2855 977 50  0000 C CNN
F 2 "" H 2850 1150 50  0001 C CNN
F 3 "" H 2850 1150 50  0001 C CNN
	1    2850 1150
	-1   0    0    1   
$EndComp
$Comp
L power:GND #PWR0108
U 1 1 5FE5A463
P 2250 750
F 0 "#PWR0108" H 2250 500 50  0001 C CNN
F 1 "GND" H 2255 577 50  0000 C CNN
F 2 "" H 2250 750 50  0001 C CNN
F 3 "" H 2250 750 50  0001 C CNN
	1    2250 750 
	-1   0    0    1   
$EndComp
$Comp
L power:GND #PWR0109
U 1 1 5FE5A6EF
P 1650 750
F 0 "#PWR0109" H 1650 500 50  0001 C CNN
F 1 "GND" H 1655 577 50  0000 C CNN
F 2 "" H 1650 750 50  0001 C CNN
F 3 "" H 1650 750 50  0001 C CNN
	1    1650 750 
	-1   0    0    1   
$EndComp
$Comp
L power:GND #PWR0110
U 1 1 5FE5B5E1
P 11100 1150
F 0 "#PWR0110" H 11100 900 50  0001 C CNN
F 1 "GND" H 11105 977 50  0000 C CNN
F 2 "" H 11100 1150 50  0001 C CNN
F 3 "" H 11100 1150 50  0001 C CNN
	1    11100 1150
	-1   0    0    1   
$EndComp
Wire Wire Line
	11100 1150 11100 1350
$Comp
L Oscillator:TXC-7C X1
U 1 1 5FE5C9F8
P 14350 7350
F 0 "X1" H 14694 7396 50  0000 L CNN
F 1 "TXC-7C" H 14694 7305 50  0000 L CNN
F 2 "Oscillator:Oscillator_SMD_EuroQuartz_XO91-4Pin_7.0x5.0mm" H 15050 7000 50  0001 C CNN
F 3 "http://www.txccorp.com/download/products/osc/7C_o.pdf" H 14250 7350 50  0001 C CNN
F 4 "717-7W-12.000MAB-T" H 14350 7350 50  0001 C CNN "Mouser"
	1    14350 7350
	1    0    0    -1  
$EndComp
$Comp
L Sensor:LTC2990 U4
U 1 1 5FE60BF9
P 5900 7500
F 0 "U4" H 5900 7600 50  0000 C CNN
F 1 "LTC2990" H 5900 7500 50  0000 C CNN
F 2 "Package_SO:MSOP-10_3x3mm_P0.5mm" H 5900 7500 50  0001 C CNN
F 3 "https://www.analog.com/media/en/technical-documentation/data-sheets/ltc2990.pdf" H 5300 8000 50  0001 C CNN
F 4 "LTC2990CMS#PBF" H 5900 7500 50  0001 C CNN "Mouser"
	1    5900 7500
	1    0    0    -1  
$EndComp
$Comp
L power:+5V #PWR0111
U 1 1 5FFCAD5F
P 9600 7900
F 0 "#PWR0111" H 9600 7750 50  0001 C CNN
F 1 "+5V" H 9615 8073 50  0000 C CNN
F 2 "" H 9600 7900 50  0001 C CNN
F 3 "" H 9600 7900 50  0001 C CNN
	1    9600 7900
	1    0    0    -1  
$EndComp
Wire Wire Line
	9950 7900 9600 7900
$Comp
L power:GND #PWR0112
U 1 1 5FFCC520
P 10250 8200
F 0 "#PWR0112" H 10250 7950 50  0001 C CNN
F 1 "GND" H 10255 8027 50  0000 C CNN
F 2 "" H 10250 8200 50  0001 C CNN
F 3 "" H 10250 8200 50  0001 C CNN
	1    10250 8200
	1    0    0    -1  
$EndComp
$Comp
L power:+3.3V #PWR0113
U 1 1 5FFCD239
P 10850 7900
F 0 "#PWR0113" H 10850 7750 50  0001 C CNN
F 1 "+3.3V" H 10865 8073 50  0000 C CNN
F 2 "" H 10850 7900 50  0001 C CNN
F 3 "" H 10850 7900 50  0001 C CNN
	1    10850 7900
	1    0    0    -1  
$EndComp
Wire Wire Line
	10850 7900 10550 7900
Wire Wire Line
	11250 6800 11600 6800
Wire Wire Line
	11250 6900 11600 6900
Wire Wire Line
	11250 7000 11600 7000
Wire Wire Line
	11250 7100 11600 7100
Text Label 11400 6800 0    50   ~ 0
TDI
Text Label 11400 6900 0    50   ~ 0
TMS
Text Label 11400 7000 0    50   ~ 0
TCK
Text Label 11400 7100 0    50   ~ 0
TDO
$Comp
L Device:C C1
U 1 1 5FFD093B
P 9600 8050
F 0 "C1" H 9715 8096 50  0000 L CNN
F 1 "10uF" H 9715 8005 50  0000 L CNN
F 2 "Capacitor_SMD:C_1206_3216Metric_Pad1.42x1.75mm_HandSolder" H 9638 7900 50  0001 C CNN
F 3 "~" H 9600 8050 50  0001 C CNN
	1    9600 8050
	1    0    0    -1  
$EndComp
Connection ~ 9600 7900
$Comp
L Device:C C2
U 1 1 5FFD15FD
P 10850 8050
F 0 "C2" H 10965 8096 50  0000 L CNN
F 1 "10uF" H 10965 8005 50  0000 L CNN
F 2 "Capacitor_SMD:C_1206_3216Metric_Pad1.42x1.75mm_HandSolder" H 10888 7900 50  0001 C CNN
F 3 "~" H 10850 8050 50  0001 C CNN
	1    10850 8050
	1    0    0    -1  
$EndComp
Connection ~ 10850 7900
$Comp
L power:GND #PWR0114
U 1 1 5FFD1E30
P 9600 8200
F 0 "#PWR0114" H 9600 7950 50  0001 C CNN
F 1 "GND" H 9605 8027 50  0000 C CNN
F 2 "" H 9600 8200 50  0001 C CNN
F 3 "" H 9600 8200 50  0001 C CNN
	1    9600 8200
	1    0    0    -1  
$EndComp
$Comp
L power:GND #PWR0115
U 1 1 5FFD7779
P 9700 9400
F 0 "#PWR0115" H 9700 9150 50  0001 C CNN
F 1 "GND" H 9705 9227 50  0000 C CNN
F 2 "" H 9700 9400 50  0001 C CNN
F 3 "" H 9700 9400 50  0001 C CNN
	1    9700 9400
	1    0    0    -1  
$EndComp
Wire Wire Line
	10050 9400 9950 9400
Wire Wire Line
	10050 9000 9950 9000
Wire Wire Line
	9950 9000 9950 9400
Connection ~ 9950 9400
Wire Wire Line
	9950 9400 9700 9400
$Comp
L power:+5V #PWR0116
U 1 1 5FFD8A6D
P 9450 9300
F 0 "#PWR0116" H 9450 9150 50  0001 C CNN
F 1 "+5V" H 9465 9473 50  0000 C CNN
F 2 "" H 9450 9300 50  0001 C CNN
F 3 "" H 9450 9300 50  0001 C CNN
	1    9450 9300
	1    0    0    -1  
$EndComp
Wire Wire Line
	10050 9300 9450 9300
Wire Wire Line
	10550 9400 10900 9400
Wire Wire Line
	10550 9300 10900 9300
Wire Wire Line
	10550 9200 10900 9200
Wire Wire Line
	10550 9000 10900 9000
Text Label 10650 9400 0    50   ~ 0
TCK
Text Label 10650 9300 0    50   ~ 0
TDO
Text Label 10650 9200 0    50   ~ 0
TMS
Text Label 10650 9000 0    50   ~ 0
TDI
Wire Wire Line
	14650 7350 15300 7350
Text Label 15100 7350 0    50   ~ 0
CLK
Wire Wire Line
	13650 6150 13300 6150
Text Label 13350 6150 0    50   ~ 0
CLK
$Comp
L power:GND #PWR0117
U 1 1 5FFDD551
P 14350 7650
F 0 "#PWR0117" H 14350 7400 50  0001 C CNN
F 1 "GND" H 14355 7477 50  0000 C CNN
F 2 "" H 14350 7650 50  0001 C CNN
F 3 "" H 14350 7650 50  0001 C CNN
	1    14350 7650
	1    0    0    -1  
$EndComp
$Comp
L power:+5V #PWR0118
U 1 1 5FFDD9ED
P 14350 7050
F 0 "#PWR0118" H 14350 6900 50  0001 C CNN
F 1 "+5V" H 14365 7223 50  0000 C CNN
F 2 "" H 14350 7050 50  0001 C CNN
F 3 "" H 14350 7050 50  0001 C CNN
	1    14350 7050
	1    0    0    -1  
$EndComp
$Comp
L power:+5V #PWR0119
U 1 1 5FFDDF84
P 14250 4450
F 0 "#PWR0119" H 14250 4300 50  0001 C CNN
F 1 "+5V" H 14265 4623 50  0000 C CNN
F 2 "" H 14250 4450 50  0001 C CNN
F 3 "" H 14250 4450 50  0001 C CNN
	1    14250 4450
	1    0    0    -1  
$EndComp
Wire Wire Line
	14850 4950 14900 4950
Text Label 14950 4950 0    50   ~ 0
SDA
Text Label 14950 5150 0    50   ~ 0
SCL
Text Label 6550 7400 0    50   ~ 0
SDA
Text Label 6550 7500 0    50   ~ 0
SCL
Wire Wire Line
	6500 7700 6600 7700
$Comp
L power:GND #PWR0120
U 1 1 5FFEE4A2
P 14250 6450
F 0 "#PWR0120" H 14250 6200 50  0001 C CNN
F 1 "GND" H 14255 6277 50  0000 C CNN
F 2 "" H 14250 6450 50  0001 C CNN
F 3 "" H 14250 6450 50  0001 C CNN
	1    14250 6450
	1    0    0    -1  
$EndComp
$Comp
L power:GND #PWR0121
U 1 1 5FFEEC5D
P 6600 7800
F 0 "#PWR0121" H 6600 7550 50  0001 C CNN
F 1 "GND" H 6605 7627 50  0000 C CNN
F 2 "" H 6600 7800 50  0001 C CNN
F 3 "" H 6600 7800 50  0001 C CNN
	1    6600 7800
	1    0    0    -1  
$EndComp
$Comp
L power:+5V #PWR0122
U 1 1 5FFEF13A
P 6200 6900
F 0 "#PWR0122" H 6200 6750 50  0001 C CNN
F 1 "+5V" H 6215 7073 50  0000 C CNN
F 2 "" H 6200 6900 50  0001 C CNN
F 3 "" H 6200 6900 50  0001 C CNN
	1    6200 6900
	1    0    0    -1  
$EndComp
$Comp
L power:GND #PWR0123
U 1 1 5FFEFCDF
P 5900 8100
F 0 "#PWR0123" H 5900 7850 50  0001 C CNN
F 1 "GND" H 5905 7927 50  0000 C CNN
F 2 "" H 5900 8100 50  0001 C CNN
F 3 "" H 5900 8100 50  0001 C CNN
	1    5900 8100
	1    0    0    -1  
$EndComp
Wire Wire Line
	10350 7300 10450 7300
Connection ~ 10450 7300
Wire Wire Line
	10450 7300 10550 7300
Connection ~ 10550 7300
Wire Wire Line
	10550 7300 10650 7300
$Comp
L power:GND #PWR0124
U 1 1 5FFF0FC7
P 10450 7300
F 0 "#PWR0124" H 10450 7050 50  0001 C CNN
F 1 "GND" H 10455 7127 50  0000 C CNN
F 2 "" H 10450 7300 50  0001 C CNN
F 3 "" H 10450 7300 50  0001 C CNN
	1    10450 7300
	1    0    0    -1  
$EndComp
Wire Wire Line
	10650 3800 10550 3800
Connection ~ 10450 3800
Wire Wire Line
	10450 3800 10350 3800
Connection ~ 10550 3800
Wire Wire Line
	10550 3800 10450 3800
$Comp
L power:+3.3V #PWR0125
U 1 1 5FFF2350
P 10550 3600
F 0 "#PWR0125" H 10550 3450 50  0001 C CNN
F 1 "+3.3V" H 10565 3773 50  0000 C CNN
F 2 "" H 10550 3600 50  0001 C CNN
F 3 "" H 10550 3600 50  0001 C CNN
	1    10550 3600
	1    0    0    -1  
$EndComp
Wire Wire Line
	10550 3600 10550 3800
$Comp
L power:+3.3V #PWR0126
U 1 1 5FFF3A3C
P 10300 10000
F 0 "#PWR0126" H 10300 9850 50  0001 C CNN
F 1 "+3.3V" H 10315 10173 50  0000 C CNN
F 2 "" H 10300 10000 50  0001 C CNN
F 3 "" H 10300 10000 50  0001 C CNN
	1    10300 10000
	1    0    0    -1  
$EndComp
$Comp
L power:GND #PWR0127
U 1 1 5FFD2251
P 10850 8200
F 0 "#PWR0127" H 10850 7950 50  0001 C CNN
F 1 "GND" H 10855 8027 50  0000 C CNN
F 2 "" H 10850 8200 50  0001 C CNN
F 3 "" H 10850 8200 50  0001 C CNN
	1    10850 8200
	1    0    0    -1  
$EndComp
$Comp
L power:GND #PWR0128
U 1 1 5FFF4F22
P 10300 10350
F 0 "#PWR0128" H 10300 10100 50  0001 C CNN
F 1 "GND" H 10305 10177 50  0000 C CNN
F 2 "" H 10300 10350 50  0001 C CNN
F 3 "" H 10300 10350 50  0001 C CNN
	1    10300 10350
	1    0    0    -1  
$EndComp
$Comp
L Device:C C5
U 1 1 5FFF5445
P 10450 10150
F 0 "C5" H 10565 10196 50  0000 L CNN
F 1 "100nF" H 10565 10105 50  0000 L CNN
F 2 "Capacitor_SMD:C_0805_2012Metric_Pad1.15x1.40mm_HandSolder" H 10488 10000 50  0001 C CNN
F 3 "~" H 10450 10150 50  0001 C CNN
	1    10450 10150
	1    0    0    -1  
$EndComp
$Comp
L Device:C C4
U 1 1 5FFF59B8
P 10000 10150
F 0 "C4" H 10115 10196 50  0000 L CNN
F 1 "100nF" H 10115 10105 50  0000 L CNN
F 2 "Capacitor_SMD:C_0805_2012Metric_Pad1.15x1.40mm_HandSolder" H 10038 10000 50  0001 C CNN
F 3 "~" H 10000 10150 50  0001 C CNN
	1    10000 10150
	1    0    0    -1  
$EndComp
$Comp
L Device:C C6
U 1 1 5FFF63C9
P 10900 10150
F 0 "C6" H 11015 10196 50  0000 L CNN
F 1 "100nF" H 11015 10105 50  0000 L CNN
F 2 "Capacitor_SMD:C_0805_2012Metric_Pad1.15x1.40mm_HandSolder" H 10938 10000 50  0001 C CNN
F 3 "~" H 10900 10150 50  0001 C CNN
	1    10900 10150
	1    0    0    -1  
$EndComp
$Comp
L Device:C C3
U 1 1 5FFF6C6F
P 9550 10150
F 0 "C3" H 9665 10196 50  0000 L CNN
F 1 "100nF" H 9665 10105 50  0000 L CNN
F 2 "Capacitor_SMD:C_0805_2012Metric_Pad1.15x1.40mm_HandSolder" H 9588 10000 50  0001 C CNN
F 3 "~" H 9550 10150 50  0001 C CNN
	1    9550 10150
	1    0    0    -1  
$EndComp
Wire Wire Line
	9550 10300 10000 10300
Connection ~ 10000 10300
Wire Wire Line
	10000 10300 10300 10300
Connection ~ 10450 10300
Wire Wire Line
	10450 10300 10900 10300
Wire Wire Line
	9550 10000 10000 10000
Connection ~ 10000 10000
Wire Wire Line
	10000 10000 10300 10000
Connection ~ 10300 10000
Wire Wire Line
	10300 10000 10450 10000
Connection ~ 10450 10000
Wire Wire Line
	10450 10000 10900 10000
Wire Wire Line
	10300 10350 10300 10300
Connection ~ 10300 10300
Wire Wire Line
	10300 10300 10450 10300
$Comp
L Device:C C9
U 1 1 5FFFE854
P 13600 7350
F 0 "C9" H 13715 7396 50  0000 L CNN
F 1 "100nF" H 13715 7305 50  0000 L CNN
F 2 "Capacitor_SMD:C_0805_2012Metric_Pad1.15x1.40mm_HandSolder" H 13638 7200 50  0001 C CNN
F 3 "~" H 13600 7350 50  0001 C CNN
	1    13600 7350
	1    0    0    -1  
$EndComp
$Comp
L power:+5V #PWR0129
U 1 1 5FFFEEE9
P 13600 7200
F 0 "#PWR0129" H 13600 7050 50  0001 C CNN
F 1 "+5V" H 13615 7373 50  0000 C CNN
F 2 "" H 13600 7200 50  0001 C CNN
F 3 "" H 13600 7200 50  0001 C CNN
	1    13600 7200
	1    0    0    -1  
$EndComp
$Comp
L power:GND #PWR0130
U 1 1 5FFFF405
P 13600 7500
F 0 "#PWR0130" H 13600 7250 50  0001 C CNN
F 1 "GND" H 13605 7327 50  0000 C CNN
F 2 "" H 13600 7500 50  0001 C CNN
F 3 "" H 13600 7500 50  0001 C CNN
	1    13600 7500
	1    0    0    -1  
$EndComp
$Comp
L Device:C C7
U 1 1 60003EAA
P 15750 5400
F 0 "C7" H 15865 5446 50  0000 L CNN
F 1 "100nF" H 15865 5355 50  0000 L CNN
F 2 "Capacitor_SMD:C_0805_2012Metric_Pad1.15x1.40mm_HandSolder" H 15788 5250 50  0001 C CNN
F 3 "~" H 15750 5400 50  0001 C CNN
	1    15750 5400
	1    0    0    -1  
$EndComp
$Comp
L power:+5V #PWR0131
U 1 1 60003EB0
P 15750 5250
F 0 "#PWR0131" H 15750 5100 50  0001 C CNN
F 1 "+5V" H 15765 5423 50  0000 C CNN
F 2 "" H 15750 5250 50  0001 C CNN
F 3 "" H 15750 5250 50  0001 C CNN
	1    15750 5250
	1    0    0    -1  
$EndComp
$Comp
L power:GND #PWR0132
U 1 1 60003EB6
P 15750 5550
F 0 "#PWR0132" H 15750 5300 50  0001 C CNN
F 1 "GND" H 15755 5377 50  0000 C CNN
F 2 "" H 15750 5550 50  0001 C CNN
F 3 "" H 15750 5550 50  0001 C CNN
	1    15750 5550
	1    0    0    -1  
$EndComp
$Comp
L Device:C C8
U 1 1 60006BEA
P 4850 5000
F 0 "C8" H 4965 5046 50  0000 L CNN
F 1 "100nF" H 4965 4955 50  0000 L CNN
F 2 "Capacitor_SMD:C_0805_2012Metric_Pad1.15x1.40mm_HandSolder" H 4888 4850 50  0001 C CNN
F 3 "~" H 4850 5000 50  0001 C CNN
	1    4850 5000
	1    0    0    -1  
$EndComp
$Comp
L power:+5V #PWR0133
U 1 1 60006BF0
P 4850 4850
F 0 "#PWR0133" H 4850 4700 50  0001 C CNN
F 1 "+5V" H 4865 5023 50  0000 C CNN
F 2 "" H 4850 4850 50  0001 C CNN
F 3 "" H 4850 4850 50  0001 C CNN
	1    4850 4850
	1    0    0    -1  
$EndComp
$Comp
L power:GND #PWR0134
U 1 1 60006BF6
P 4850 5150
F 0 "#PWR0134" H 4850 4900 50  0001 C CNN
F 1 "GND" H 4855 4977 50  0000 C CNN
F 2 "" H 4850 5150 50  0001 C CNN
F 3 "" H 4850 5150 50  0001 C CNN
	1    4850 5150
	1    0    0    -1  
$EndComp
Wire Wire Line
	13650 4750 13300 4750
Wire Wire Line
	13650 4950 13300 4950
Wire Wire Line
	13650 5050 13300 5050
Wire Wire Line
	13650 5150 13300 5150
Wire Wire Line
	13650 5250 13300 5250
Wire Wire Line
	13650 5350 13300 5350
Wire Wire Line
	13650 5450 13300 5450
Wire Wire Line
	13650 5550 13300 5550
Wire Wire Line
	13650 5650 13300 5650
Text Label 13350 4750 0    50   ~ 0
PCFA0
Text Label 13350 4950 0    50   ~ 0
PCFD0
Text Label 13350 5050 0    50   ~ 0
PCFD1
Text Label 13350 5150 0    50   ~ 0
PCFD2
Text Label 13350 5250 0    50   ~ 0
PCFD3
Text Label 13350 5350 0    50   ~ 0
PCFD4
Text Label 13350 5450 0    50   ~ 0
PCFD5
Text Label 13350 5550 0    50   ~ 0
PCFD6
Text Label 13350 5650 0    50   ~ 0
PCFD7
Wire Wire Line
	13650 5850 13300 5850
Wire Wire Line
	13650 6050 13300 6050
Text Label 13350 5850 0    50   ~ 0
PCFCS
Wire Wire Line
	14850 5950 15200 5950
Text Label 14900 5950 0    50   ~ 0
PCFINT
Wire Wire Line
	14850 6150 15200 6150
$Comp
L Device:R R4
U 1 1 600294FA
P 15050 5700
F 0 "R4" H 15120 5746 50  0000 L CNN
F 1 "4k7" H 15120 5655 50  0000 L CNN
F 2 "Resistor_SMD:R_0805_2012Metric_Pad1.15x1.40mm_HandSolder" V 14980 5700 50  0001 C CNN
F 3 "~" H 15050 5700 50  0001 C CNN
	1    15050 5700
	1    0    0    -1  
$EndComp
Wire Wire Line
	14850 5850 15050 5850
$Comp
L power:+5V #PWR0135
U 1 1 6002C0E4
P 15050 5550
F 0 "#PWR0135" H 15050 5400 50  0001 C CNN
F 1 "+5V" H 15065 5723 50  0000 C CNN
F 2 "" H 15050 5550 50  0001 C CNN
F 3 "" H 15050 5550 50  0001 C CNN
	1    15050 5550
	1    0    0    -1  
$EndComp
$Comp
L Device:R R3
U 1 1 6002C564
P 14900 4600
F 0 "R3" H 14970 4646 50  0000 L CNN
F 1 "4k7" H 14970 4555 50  0000 L CNN
F 2 "Resistor_SMD:R_0805_2012Metric_Pad1.15x1.40mm_HandSolder" V 14830 4600 50  0001 C CNN
F 3 "~" H 14900 4600 50  0001 C CNN
	1    14900 4600
	1    0    0    -1  
$EndComp
$Comp
L Device:R R5
U 1 1 6002D1A3
P 15200 4600
F 0 "R5" H 15270 4646 50  0000 L CNN
F 1 "4k7" H 15270 4555 50  0000 L CNN
F 2 "Resistor_SMD:R_0805_2012Metric_Pad1.15x1.40mm_HandSolder" V 15130 4600 50  0001 C CNN
F 3 "~" H 15200 4600 50  0001 C CNN
	1    15200 4600
	1    0    0    -1  
$EndComp
$Comp
L power:+5V #PWR0136
U 1 1 6002D6FE
P 14900 4450
F 0 "#PWR0136" H 14900 4300 50  0001 C CNN
F 1 "+5V" H 14915 4623 50  0000 C CNN
F 2 "" H 14900 4450 50  0001 C CNN
F 3 "" H 14900 4450 50  0001 C CNN
	1    14900 4450
	1    0    0    -1  
$EndComp
$Comp
L power:+5V #PWR0137
U 1 1 6002DAC1
P 15200 4450
F 0 "#PWR0137" H 15200 4300 50  0001 C CNN
F 1 "+5V" H 15215 4623 50  0000 C CNN
F 2 "" H 15200 4450 50  0001 C CNN
F 3 "" H 15200 4450 50  0001 C CNN
	1    15200 4450
	1    0    0    -1  
$EndComp
Wire Wire Line
	6500 7400 6900 7400
Wire Wire Line
	14900 4750 14900 4950
Connection ~ 14900 4950
Wire Wire Line
	15200 4750 15200 4800
$Comp
L Device:R R2
U 1 1 6004072C
P 13000 5800
F 0 "R2" H 13070 5846 50  0000 L CNN
F 1 "1k" H 13070 5755 50  0000 L CNN
F 2 "Resistor_SMD:R_0805_2012Metric_Pad1.15x1.40mm_HandSolder" V 12930 5800 50  0001 C CNN
F 3 "~" H 13000 5800 50  0001 C CNN
	1    13000 5800
	1    0    0    -1  
$EndComp
$Comp
L power:+5V #PWR0138
U 1 1 60040EE8
P 13000 5650
F 0 "#PWR0138" H 13000 5500 50  0001 C CNN
F 1 "+5V" H 13015 5823 50  0000 C CNN
F 2 "" H 13000 5650 50  0001 C CNN
F 3 "" H 13000 5650 50  0001 C CNN
	1    13000 5650
	1    0    0    -1  
$EndComp
Wire Wire Line
	13000 5950 13650 5950
Wire Wire Line
	5900 6900 5900 6550
Wire Wire Line
	5600 6900 5600 6550
Text Label 5200 7700 0    50   ~ 0
V4
Text Label 5200 7300 0    50   ~ 0
V3
Text Label 5600 6650 1    50   ~ 0
V2
Text Label 5900 6650 1    50   ~ 0
V1
$Comp
L Device:R R8
U 1 1 6004E6A8
P 6575 4850
F 0 "R8" H 6645 4896 50  0000 L CNN
F 1 "10k 0.1%" H 6645 4805 50  0000 L CNN
F 2 "Resistor_SMD:R_0805_2012Metric_Pad1.15x1.40mm_HandSolder" V 6505 4850 50  0001 C CNN
F 3 "~" H 6575 4850 50  0001 C CNN
	1    6575 4850
	1    0    0    -1  
$EndComp
$Comp
L Device:R R9
U 1 1 6004EC42
P 6575 5150
F 0 "R9" H 6645 5196 50  0000 L CNN
F 1 "10k 0.1%" H 6645 5105 50  0000 L CNN
F 2 "Resistor_SMD:R_0805_2012Metric_Pad1.15x1.40mm_HandSolder" V 6505 5150 50  0001 C CNN
F 3 "~" H 6575 5150 50  0001 C CNN
	1    6575 5150
	1    0    0    -1  
$EndComp
$Comp
L power:GND #PWR0139
U 1 1 6004F0AD
P 6575 5300
F 0 "#PWR0139" H 6575 5050 50  0001 C CNN
F 1 "GND" H 6580 5127 50  0000 C CNN
F 2 "" H 6575 5300 50  0001 C CNN
F 3 "" H 6575 5300 50  0001 C CNN
	1    6575 5300
	1    0    0    -1  
$EndComp
$Comp
L power:+5V #PWR0140
U 1 1 6004F576
P 6575 4700
F 0 "#PWR0140" H 6575 4550 50  0001 C CNN
F 1 "+5V" H 6590 4873 50  0000 C CNN
F 2 "" H 6575 4700 50  0001 C CNN
F 3 "" H 6575 4700 50  0001 C CNN
	1    6575 4700
	1    0    0    -1  
$EndComp
$Comp
L Device:R R6
U 1 1 60050D8D
P 5750 4850
F 0 "R6" H 5820 4896 50  0000 L CNN
F 1 "30.1k 0.1%" H 5820 4805 50  0000 L CNN
F 2 "Resistor_SMD:R_0805_2012Metric_Pad1.15x1.40mm_HandSolder" V 5680 4850 50  0001 C CNN
F 3 "~" H 5750 4850 50  0001 C CNN
F 4 "667-ERJ-6RBD3012V" H 5750 4850 50  0001 C CNN "Mouser"
	1    5750 4850
	1    0    0    -1  
$EndComp
$Comp
L Device:R R7
U 1 1 60050D93
P 5750 5150
F 0 "R7" H 5820 5196 50  0000 L CNN
F 1 "10k 0.1%" H 5820 5105 50  0000 L CNN
F 2 "Resistor_SMD:R_0805_2012Metric_Pad1.15x1.40mm_HandSolder" V 5680 5150 50  0001 C CNN
F 3 "~" H 5750 5150 50  0001 C CNN
	1    5750 5150
	1    0    0    -1  
$EndComp
$Comp
L power:GND #PWR0141
U 1 1 60050D99
P 5750 5300
F 0 "#PWR0141" H 5750 5050 50  0001 C CNN
F 1 "GND" H 5755 5127 50  0000 C CNN
F 2 "" H 5750 5300 50  0001 C CNN
F 3 "" H 5750 5300 50  0001 C CNN
	1    5750 5300
	1    0    0    -1  
$EndComp
$Comp
L power:+12V #PWR0142
U 1 1 6005350A
P 6600 1050
F 0 "#PWR0142" H 6600 900 50  0001 C CNN
F 1 "+12V" H 6615 1223 50  0000 C CNN
F 2 "" H 6600 1050 50  0001 C CNN
F 3 "" H 6600 1050 50  0001 C CNN
	1    6600 1050
	1    0    0    -1  
$EndComp
Wire Wire Line
	6600 1050 6600 1350
$Comp
L power:+12V #PWR0143
U 1 1 60058BA0
P 5750 4700
F 0 "#PWR0143" H 5750 4550 50  0001 C CNN
F 1 "+12V" H 5765 4873 50  0000 C CNN
F 2 "" H 5750 4700 50  0001 C CNN
F 3 "" H 5750 4700 50  0001 C CNN
	1    5750 4700
	1    0    0    -1  
$EndComp
Wire Wire Line
	5750 5000 5500 5000
Connection ~ 5750 5000
Wire Wire Line
	6575 5000 6875 5000
Connection ~ 6575 5000
Text Label 6775 5000 0    50   ~ 0
V1
Text Label 5550 5000 0    50   ~ 0
V2
Wire Wire Line
	6500 7800 6600 7800
Connection ~ 6600 7800
Wire Wire Line
	6600 7800 6600 7700
Wire Wire Line
	6500 7500 6900 7500
Wire Wire Line
	9650 6700 9250 6700
Text Label 9300 6700 0    50   ~ 0
_ERST
Wire Wire Line
	9650 6600 9250 6600
Wire Wire Line
	9650 6500 9250 6500
Wire Wire Line
	9650 6400 9250 6400
Wire Wire Line
	9650 6300 9250 6300
Wire Wire Line
	9650 6200 9250 6200
Wire Wire Line
	9650 6100 9250 6100
Wire Wire Line
	11250 6600 11600 6600
Wire Wire Line
	11250 6500 11600 6500
Text Label 9300 6600 0    50   ~ 0
EAD17
Text Label 9300 6500 0    50   ~ 0
EAD18
Text Label 9300 6400 0    50   ~ 0
EAD19
Text Label 9300 6300 0    50   ~ 0
EAD20
Text Label 9300 6200 0    50   ~ 0
EAD21
Text Label 9300 6100 0    50   ~ 0
EAD22
Text Label 11350 6600 0    50   ~ 0
EAD23
Text Label 11350 6500 0    50   ~ 0
EAD31
Wire Wire Line
	11250 6400 11600 6400
Wire Wire Line
	11250 6300 11600 6300
Wire Wire Line
	11250 6200 11600 6200
Wire Wire Line
	11250 6100 11600 6100
Text Label 11350 6400 0    50   ~ 0
EAD30
Text Label 11350 6300 0    50   ~ 0
EAD26
Text Label 11350 6200 0    50   ~ 0
EAD25
Text Label 11350 6100 0    50   ~ 0
EAD24
Wire Wire Line
	9650 5600 8950 5600
Text Label 9100 5600 0    50   ~ 0
_SLAVE
Wire Wire Line
	9650 5700 9250 5700
Wire Wire Line
	9650 5800 9250 5800
Wire Wire Line
	9650 5900 9250 5900
Wire Wire Line
	9650 6000 9250 6000
Text Label 9300 5700 0    50   ~ 0
_CACHE
Text Label 9300 5800 0    50   ~ 0
READ
Text Label 9300 5900 0    50   ~ 0
_DTACK
Text Label 9300 6000 0    50   ~ 0
_LOCK
Wire Wire Line
	9250 4100 9650 4100
Wire Wire Line
	9650 4200 9250 4200
Wire Wire Line
	9650 4300 9250 4300
Wire Wire Line
	9650 4400 9250 4400
Wire Wire Line
	9650 4500 9250 4500
Wire Wire Line
	9650 4600 9250 4600
Wire Wire Line
	9650 4700 9250 4700
Wire Wire Line
	9650 4800 9250 4800
Text Label 9300 4100 0    50   ~ 0
EA2
Text Label 9300 4200 0    50   ~ 0
EA3
Text Label 9300 4300 0    50   ~ 0
EA4
Text Label 9300 4400 0    50   ~ 0
EA8
Text Label 9300 4500 0    50   ~ 0
EAD15
Text Label 9300 4600 0    50   ~ 0
EAD16
Text Label 9300 4700 0    50   ~ 0
E7M
Text Label 9300 4800 0    50   ~ 0
_CCS
Wire Wire Line
	9650 4900 9250 4900
Wire Wire Line
	9650 5000 9250 5000
Wire Wire Line
	9650 5100 9250 5100
Wire Wire Line
	9650 5200 9250 5200
Wire Wire Line
	9650 5300 9250 5300
Text Label 9300 4900 0    50   ~ 0
ECDAC
Text Label 9300 5000 0    50   ~ 0
_FCS
Text Label 9300 5100 0    50   ~ 0
CFIN
Text Label 9300 5200 0    50   ~ 0
DOE
Wire Wire Line
	11250 4000 11600 4000
Text Label 11350 4000 0    50   ~ 0
EA5
Text Label 9300 5300 0    50   ~ 0
EA6
Wire Wire Line
	11250 4100 11600 4100
Text Label 11350 4100 0    50   ~ 0
EA7
Wire Wire Line
	11250 4200 11900 4200
$Comp
L Device:R R1
U 1 1 6016889C
P 11900 4050
F 0 "R1" H 11970 4096 50  0000 L CNN
F 1 "4k7" H 11970 4005 50  0000 L CNN
F 2 "Resistor_SMD:R_0805_2012Metric_Pad1.15x1.40mm_HandSolder" V 11830 4050 50  0001 C CNN
F 3 "~" H 11900 4050 50  0001 C CNN
	1    11900 4050
	1    0    0    -1  
$EndComp
$Comp
L power:+3.3V #PWR0144
U 1 1 60168F71
P 11900 3900
F 0 "#PWR0144" H 11900 3750 50  0001 C CNN
F 1 "+3.3V" H 11915 4073 50  0000 C CNN
F 2 "" H 11900 3900 50  0001 C CNN
F 3 "" H 11900 3900 50  0001 C CNN
	1    11900 3900
	1    0    0    -1  
$EndComp
$Comp
L Connector_Generic:Conn_01x02 J2
U 1 1 60169629
P 12250 4200
F 0 "J2" H 12330 4192 50  0000 L CNN
F 1 "DISABLE_ICY" H 12330 4101 50  0000 L CNN
F 2 "Connector_PinHeader_2.54mm:PinHeader_1x02_P2.54mm_Vertical" H 12250 4200 50  0001 C CNN
F 3 "~" H 12250 4200 50  0001 C CNN
	1    12250 4200
	1    0    0    -1  
$EndComp
Wire Wire Line
	11900 4200 12050 4200
Connection ~ 11900 4200
$Comp
L power:GND #PWR0145
U 1 1 60170B72
P 11900 4300
F 0 "#PWR0145" H 11900 4050 50  0001 C CNN
F 1 "GND" H 11905 4127 50  0000 C CNN
F 2 "" H 11900 4300 50  0001 C CNN
F 3 "" H 11900 4300 50  0001 C CNN
	1    11900 4300
	1    0    0    -1  
$EndComp
Wire Wire Line
	11900 4300 12050 4300
Wire Wire Line
	11250 4300 11600 4300
Wire Wire Line
	11250 4400 11600 4400
Wire Wire Line
	11250 4500 11600 4500
Wire Wire Line
	11250 5100 11600 5100
Wire Wire Line
	11250 5200 11600 5200
Wire Wire Line
	11250 5300 11600 5300
Wire Wire Line
	11250 4600 11600 4600
Wire Wire Line
	11250 4700 11600 4700
Text Label 11350 5100 0    50   ~ 0
PCFD0
Text Label 11350 5200 0    50   ~ 0
PCFD1
Text Label 11350 5300 0    50   ~ 0
PCFD2
Text Label 11350 4300 0    50   ~ 0
PCFD3
Text Label 11350 4400 0    50   ~ 0
PCFD4
Text Label 11350 4500 0    50   ~ 0
PCFD5
Text Label 11350 4600 0    50   ~ 0
PCFD6
Text Label 11350 4700 0    50   ~ 0
PCFD7
Wire Wire Line
	11250 5000 11600 5000
Text Label 11350 5000 0    50   ~ 0
PCFA0
Wire Wire Line
	11250 4900 11600 4900
Text Label 11350 4900 0    50   ~ 0
PCFCS
Wire Wire Line
	11250 4800 11600 4800
Text Label 11350 4800 0    50   ~ 0
CTRL1
Wire Wire Line
	11250 5500 11600 5500
Wire Wire Line
	11250 5600 11600 5600
Wire Wire Line
	11250 5700 11600 5700
Wire Wire Line
	11250 5800 11600 5800
Wire Wire Line
	11250 5900 11600 5900
Wire Wire Line
	11250 6000 11600 6000
Text Label 11350 5500 0    50   ~ 0
EAD29
Text Label 11350 5600 0    50   ~ 0
EAD28
Text Label 11350 5700 0    50   ~ 0
EAD27
Text Label 11350 5800 0    50   ~ 0
_CF_OUT
Text Label 11350 5900 0    50   ~ 0
_EDS3
Text Label 11350 6000 0    50   ~ 0
_BINT
Wire Wire Line
	1450 1350 1450 800 
Wire Wire Line
	1550 1350 1550 800 
Text Label 1450 1150 1    50   ~ 0
_SLAVE
Text Label 1550 1150 1    50   ~ 0
_CF_OUT
Wire Wire Line
	1750 1350 1750 800 
Text Label 1750 1150 1    50   ~ 0
ECDAC
Wire Wire Line
	1650 750  1650 1350
Wire Wire Line
	1950 1350 1950 800 
Text Label 1950 1150 1    50   ~ 0
PCFINT
Wire Wire Line
	2050 1350 2050 800 
Wire Wire Line
	7300 800  7300 1350
Wire Wire Line
	2150 1350 2150 800 
Text Label 2050 1150 1    50   ~ 0
EA5
Text Label 2150 1150 1    50   ~ 0
EA6
Text Label 7300 1150 1    50   ~ 0
EA4
Wire Wire Line
	2350 1350 2350 800 
Text Label 2350 1150 1    50   ~ 0
EA2
Wire Wire Line
	2250 750  2250 1350
Wire Wire Line
	5850 1350 5850 800 
Text Label 5850 1150 1    50   ~ 0
_FCS
Wire Wire Line
	7400 1350 7400 800 
Wire Wire Line
	7500 1350 7500 800 
Wire Wire Line
	7600 1350 7600 800 
Text Label 7500 1150 1    50   ~ 0
EA7
Text Label 7600 1150 1    50   ~ 0
EA8
Text Label 7400 1150 1    50   ~ 0
EA3
Wire Wire Line
	2450 1350 2450 800 
Text Label 2450 1150 1    50   ~ 0
_LOCK
Wire Wire Line
	3150 1350 3150 800 
Text Label 3150 1150 1    50   ~ 0
EAD15
Wire Wire Line
	3250 1350 3250 800 
Text Label 3250 1150 1    50   ~ 0
EAD16
Text Label 8400 1150 1    50   ~ 0
_BINT
Wire Wire Line
	3350 1350 3350 800 
Wire Wire Line
	8400 1350 8400 800 
Text Label 3350 1150 1    50   ~ 0
EAD17
Wire Wire Line
	4050 750  4050 1350
Wire Wire Line
	4650 750  4650 1350
Wire Wire Line
	5250 1350 5250 750 
Wire Wire Line
	5350 1350 5350 750 
Wire Wire Line
	5450 1350 5450 750 
$Comp
L power:GND #PWR0147
U 1 1 602F66BB
P 5250 750
F 0 "#PWR0147" H 5250 500 50  0001 C CNN
F 1 "GND" H 5255 577 50  0000 C CNN
F 2 "" H 5250 750 50  0001 C CNN
F 3 "" H 5250 750 50  0001 C CNN
	1    5250 750 
	-1   0    0    1   
$EndComp
Wire Wire Line
	5450 750  5350 750 
Connection ~ 5250 750 
Connection ~ 5350 750 
Wire Wire Line
	5350 750  5250 750 
Wire Wire Line
	4150 1350 4150 800 
Text Label 4150 1150 1    50   ~ 0
EAD31
Wire Wire Line
	4250 1350 4250 800 
Wire Wire Line
	4350 1350 4350 800 
Wire Wire Line
	4450 1350 4450 800 
Wire Wire Line
	4550 1350 4550 800 
Wire Wire Line
	9900 1350 9900 800 
Wire Wire Line
	10000 1350 10000 800 
Wire Wire Line
	10100 1350 10100 800 
Text Label 9900 1150 1    50   ~ 0
EAD26
Text Label 10000 1150 1    50   ~ 0
EAD25
Text Label 10100 1150 1    50   ~ 0
EAD24
Text Label 4250 1150 1    50   ~ 0
EAD30
Text Label 4350 1150 1    50   ~ 0
EAD29
Text Label 4450 1150 1    50   ~ 0
EAD28
Text Label 4550 1150 1    50   ~ 0
EAD27
Wire Wire Line
	10700 1350 10700 800 
Text Label 10700 1150 1    50   ~ 0
E7M
Wire Wire Line
	9800 1350 9800 800 
Text Label 9800 1150 1    50   ~ 0
_CCS
Wire Wire Line
	6700 1350 6700 800 
Text Label 6700 1150 1    50   ~ 0
CFIN
Wire Wire Line
	5650 1350 5650 800 
Text Label 5650 1150 1    50   ~ 0
DOE
Wire Wire Line
	9500 1350 9500 800 
Text Label 9500 1150 1    50   ~ 0
READ
Text Label 10800 1150 1    50   ~ 0
_ERST
Wire Wire Line
	10800 1350 10800 800 
Text Label 15150 6150 2    50   ~ 0
_ERST
Wire Wire Line
	1850 1350 1850 800 
Text Label 1850 1150 1    50   ~ 0
_CACHE
Text Label 9400 1150 1    50   ~ 0
_DTACK
Wire Wire Line
	9400 1350 9400 800 
Wire Wire Line
	3950 1350 3950 800 
Text Label 3950 1150 1    50   ~ 0
EAD23
Wire Wire Line
	9000 1350 9000 800 
Wire Wire Line
	3850 1350 3850 800 
Text Label 3850 1150 1    50   ~ 0
EAD21
Text Label 9000 1150 1    50   ~ 0
EAD22
Text Label 8900 1150 1    50   ~ 0
EAD20
Wire Wire Line
	8900 1350 8900 800 
Wire Wire Line
	8800 1350 8800 800 
Wire Wire Line
	8700 1350 8700 800 
Text Label 8800 1150 1    50   ~ 0
EAD19
Text Label 8700 1150 1    50   ~ 0
EAD18
Text Label 9700 1150 1    50   ~ 0
_EDS3
Wire Wire Line
	9700 1350 9700 800 
$Comp
L power:GND #PWR0148
U 1 1 600A453D
P 10500 1150
F 0 "#PWR0148" H 10500 900 50  0001 C CNN
F 1 "GND" H 10505 977 50  0000 C CNN
F 2 "" H 10500 1150 50  0001 C CNN
F 3 "" H 10500 1150 50  0001 C CNN
	1    10500 1150
	-1   0    0    1   
$EndComp
Wire Wire Line
	10500 1150 10500 1350
$Comp
L power:GND #PWR0149
U 1 1 600AF0A1
P 10600 900
F 0 "#PWR0149" H 10600 650 50  0001 C CNN
F 1 "GND" H 10605 727 50  0000 C CNN
F 2 "" H 10600 900 50  0001 C CNN
F 3 "" H 10600 900 50  0001 C CNN
	1    10600 900 
	-1   0    0    1   
$EndComp
Wire Wire Line
	10600 900  10600 1350
NoConn ~ 5150 1350
NoConn ~ 5050 1350
NoConn ~ 4950 1350
NoConn ~ 4850 1350
NoConn ~ 4750 1350
NoConn ~ 3750 1350
NoConn ~ 3650 1350
NoConn ~ 3550 1350
NoConn ~ 5550 1350
NoConn ~ 5750 1350
NoConn ~ 6500 1350
NoConn ~ 6800 1350
NoConn ~ 6900 1350
NoConn ~ 7000 1350
NoConn ~ 7100 1350
NoConn ~ 7200 1350
NoConn ~ 7700 1350
NoConn ~ 7800 1350
NoConn ~ 7900 1350
NoConn ~ 8000 1350
NoConn ~ 8100 1350
NoConn ~ 8200 1350
NoConn ~ 8300 1350
NoConn ~ 8500 1350
NoConn ~ 8600 1350
NoConn ~ 9100 1350
NoConn ~ 9200 1350
NoConn ~ 9300 1350
NoConn ~ 9600 1350
NoConn ~ 10200 1350
NoConn ~ 10300 1350
NoConn ~ 10400 1350
NoConn ~ 10900 1350
NoConn ~ 11000 1350
NoConn ~ 1350 1350
NoConn ~ 10050 9100
NoConn ~ 10050 9200
NoConn ~ 10550 9100
NoConn ~ 14050 7350
$Comp
L Transistor_BJT:MMBT3904 Q1
U 1 1 6026C6D3
P 4750 7500
F 0 "Q1" H 4941 7546 50  0000 L CNN
F 1 "MMBT3904" H 4941 7455 50  0000 L CNN
F 2 "Package_TO_SOT_SMD:SOT-23" H 4950 7425 50  0001 L CIN
F 3 "https://www.fairchildsemi.com/datasheets/2N/2N3904.pdf" H 4750 7500 50  0001 L CNN
F 4 "621-MMBT3904-F" H 4750 7500 50  0001 C CNN "Mouser"
	1    4750 7500
	-1   0    0    -1  
$EndComp
Wire Wire Line
	4650 7700 5050 7700
Wire Wire Line
	4650 7300 4950 7300
Wire Wire Line
	4950 7500 4950 7300
Connection ~ 4950 7300
Wire Wire Line
	4950 7300 5050 7300
$Comp
L Device:C C10
U 1 1 602C5E49
P 5050 7500
F 0 "C10" H 5165 7546 50  0000 L CNN
F 1 "470pF" H 5165 7455 50  0000 L CNN
F 2 "Capacitor_SMD:C_0805_2012Metric_Pad1.15x1.40mm_HandSolder" H 5088 7350 50  0001 C CNN
F 3 "~" H 5050 7500 50  0001 C CNN
	1    5050 7500
	1    0    0    -1  
$EndComp
Wire Wire Line
	5050 7350 5050 7300
Connection ~ 5050 7300
Wire Wire Line
	5050 7300 5300 7300
Wire Wire Line
	5050 7650 5050 7700
Connection ~ 5050 7700
Wire Wire Line
	5050 7700 5300 7700
NoConn ~ 2550 1350
NoConn ~ 2650 1350
NoConn ~ 2750 1350
NoConn ~ 2950 1350
NoConn ~ 3050 1350
NoConn ~ 6400 1350
Text Label 13600 6050 2    50   ~ 0
READ
Wire Wire Line
	14900 4950 15200 4950
Wire Wire Line
	15300 5150 15300 4800
Wire Wire Line
	15300 4800 15200 4800
Wire Wire Line
	14850 5150 15300 5150
NoConn ~ 3450 1350
$Comp
L Connector_Generic:Conn_02x05_Odd_Even J3
U 1 1 5FFD3FFA
P 10350 9200
F 0 "J3" H 10400 8775 50  0000 C CNN
F 1 "Conn_02x05_Odd_Even" H 10400 8866 50  0000 C CNN
F 2 "Connector_IDC:IDC-Header_2x05_P2.54mm_Vertical" H 10350 9200 50  0001 C CNN
F 3 "~" H 10350 9200 50  0001 C CNN
	1    10350 9200
	-1   0    0    1   
$EndComp
$Comp
L Connector_Generic:Conn_01x04 J4
U 1 1 60567812
P 13550 2650
F 0 "J4" H 13468 2225 50  0000 C CNN
F 1 "Conn_01x04" H 13468 2316 50  0000 C CNN
F 2 "Connector_PinHeader_2.54mm:PinHeader_1x04_P2.54mm_Horizontal" H 13550 2650 50  0001 C CNN
F 3 "~" H 13550 2650 50  0001 C CNN
	1    13550 2650
	-1   0    0    1   
$EndComp
Text Label 14000 2550 2    50   ~ 0
SDA
Text Label 14000 2450 2    50   ~ 0
SCL
Wire Wire Line
	13750 2550 14050 2550
Wire Wire Line
	13750 2450 14050 2450
$Comp
L power:GND #PWR0103
U 1 1 605804C2
P 14200 2750
F 0 "#PWR0103" H 14200 2500 50  0001 C CNN
F 1 "GND" H 14205 2577 50  0000 C CNN
F 2 "" H 14200 2750 50  0001 C CNN
F 3 "" H 14200 2750 50  0001 C CNN
	1    14200 2750
	1    0    0    -1  
$EndComp
$Comp
L power:+5V #PWR0146
U 1 1 6058CA85
P 14900 2650
F 0 "#PWR0146" H 14900 2500 50  0001 C CNN
F 1 "+5V" H 14915 2823 50  0000 C CNN
F 2 "" H 14900 2650 50  0001 C CNN
F 3 "" H 14900 2650 50  0001 C CNN
	1    14900 2650
	1    0    0    -1  
$EndComp
Wire Wire Line
	13750 2750 14200 2750
$Comp
L Connector_Generic:Conn_01x04 J5
U 1 1 605A698E
P 13550 3500
F 0 "J5" H 13468 3075 50  0000 C CNN
F 1 "Conn_01x04" H 13468 3166 50  0000 C CNN
F 2 "Connector_PinHeader_2.54mm:PinHeader_1x04_P2.54mm_Horizontal" H 13550 3500 50  0001 C CNN
F 3 "~" H 13550 3500 50  0001 C CNN
	1    13550 3500
	-1   0    0    1   
$EndComp
Text Label 14000 3400 2    50   ~ 0
SDA
Text Label 14000 3300 2    50   ~ 0
SCL
Wire Wire Line
	13750 3400 14050 3400
Wire Wire Line
	13750 3300 14050 3300
$Comp
L power:GND #PWR0150
U 1 1 605A6998
P 14200 3600
F 0 "#PWR0150" H 14200 3350 50  0001 C CNN
F 1 "GND" H 14205 3427 50  0000 C CNN
F 2 "" H 14200 3600 50  0001 C CNN
F 3 "" H 14200 3600 50  0001 C CNN
	1    14200 3600
	1    0    0    -1  
$EndComp
Wire Wire Line
	13750 3600 14200 3600
$Comp
L Device:Polyfuse_Small F1
U 1 1 605B32B1
P 14500 2650
F 0 "F1" V 14295 2650 50  0000 C CNN
F 1 "0.5A" V 14386 2650 50  0000 C CNN
F 2 "Fuse:Fuse_1210_3225Metric_Pad1.42x2.65mm_HandSolder" H 14550 2450 50  0001 L CNN
F 3 "~" H 14500 2650 50  0001 C CNN
	1    14500 2650
	0    1    1    0   
$EndComp
Wire Wire Line
	13750 3500 14350 3500
Wire Wire Line
	14600 2650 14900 2650
Text Label 13350 5950 0    50   ~ 0
CTRL1
$Comp
L Connector_Generic:Conn_01x01 MountingHole1
U 1 1 60101FBE
P 12250 1150
F 0 "MountingHole1" H 12330 1192 50  0000 L CNN
F 1 "Conn_01x01" H 12330 1101 50  0000 L CNN
F 2 "MountingHole:MountingHole_4.3mm_M4_DIN965_Pad" H 12250 1150 50  0001 C CNN
F 3 "~" H 12250 1150 50  0001 C CNN
	1    12250 1150
	1    0    0    -1  
$EndComp
$Comp
L Connector_Generic:Conn_01x01 MountingHole2
U 1 1 6010EC27
P 13250 1150
F 0 "MountingHole2" H 13330 1192 50  0000 L CNN
F 1 "Conn_01x01" H 13330 1101 50  0000 L CNN
F 2 "MountingHole:MountingHole_4.3mm_M4_DIN965_Pad" H 13250 1150 50  0001 C CNN
F 3 "~" H 13250 1150 50  0001 C CNN
	1    13250 1150
	1    0    0    -1  
$EndComp
$Comp
L power:GND #PWR0151
U 1 1 6010EEB8
P 13050 1150
F 0 "#PWR0151" H 13050 900 50  0001 C CNN
F 1 "GND" H 13055 977 50  0000 C CNN
F 2 "" H 13050 1150 50  0001 C CNN
F 3 "" H 13050 1150 50  0001 C CNN
	1    13050 1150
	1    0    0    -1  
$EndComp
$Comp
L power:GND #PWR0152
U 1 1 6010FD87
P 12050 1150
F 0 "#PWR0152" H 12050 900 50  0001 C CNN
F 1 "GND" H 12055 977 50  0000 C CNN
F 2 "" H 12050 1150 50  0001 C CNN
F 3 "" H 12050 1150 50  0001 C CNN
	1    12050 1150
	1    0    0    -1  
$EndComp
$Comp
L CPLDICY-rescue:MAX31760-MAX31760 U5
U 1 1 60191AD0
P 2700 7450
F 0 "U5" H 2700 7550 60  0000 C CNN
F 1 "MAX31760" H 2700 7450 60  0000 C CNN
F 2 "Package_SO:QSOP-16_3.9x4.9mm_P0.635mm" H 2650 8600 60  0001 C CNN
F 3 "" H 2650 8600 60  0001 C CNN
F 4 " 700-MAX31760AEE+" H 2700 7450 50  0001 C CNN "Mouser"
	1    2700 7450
	1    0    0    -1  
$EndComp
Text Label 1700 7550 0    50   ~ 0
SDA
Text Label 1700 7700 0    50   ~ 0
SCL
Wire Wire Line
	1950 7550 1650 7550
Wire Wire Line
	1950 7700 1650 7700
$Comp
L power:GND #PWR0153
U 1 1 6026E3EB
P 3050 8500
F 0 "#PWR0153" H 3050 8250 50  0001 C CNN
F 1 "GND" H 3055 8327 50  0000 C CNN
F 2 "" H 3050 8500 50  0001 C CNN
F 3 "" H 3050 8500 50  0001 C CNN
	1    3050 8500
	1    0    0    -1  
$EndComp
$Comp
L power:+3.3V #PWR0154
U 1 1 6026F2D4
P 1950 6250
F 0 "#PWR0154" H 1950 6100 50  0001 C CNN
F 1 "+3.3V" H 1965 6423 50  0000 C CNN
F 2 "" H 1950 6250 50  0001 C CNN
F 3 "" H 1950 6250 50  0001 C CNN
	1    1950 6250
	1    0    0    -1  
$EndComp
$Comp
L Device:R R12
U 1 1 6027CF66
P 1950 6600
F 0 "R12" H 2020 6646 50  0000 L CNN
F 1 "4k7" H 2020 6555 50  0000 L CNN
F 2 "Resistor_SMD:R_0805_2012Metric_Pad1.15x1.40mm_HandSolder" V 1880 6600 50  0001 C CNN
F 3 "~" H 1950 6600 50  0001 C CNN
	1    1950 6600
	1    0    0    -1  
$EndComp
$Comp
L Device:R R11
U 1 1 6027DA4B
P 1650 6600
F 0 "R11" H 1720 6646 50  0000 L CNN
F 1 "4k7" H 1720 6555 50  0000 L CNN
F 2 "Resistor_SMD:R_0805_2012Metric_Pad1.15x1.40mm_HandSolder" V 1580 6600 50  0001 C CNN
F 3 "~" H 1650 6600 50  0001 C CNN
	1    1650 6600
	1    0    0    -1  
$EndComp
$Comp
L Device:R R10
U 1 1 6027E64B
P 1350 6600
F 0 "R10" H 1420 6646 50  0000 L CNN
F 1 "4k7" H 1420 6555 50  0000 L CNN
F 2 "Resistor_SMD:R_0805_2012Metric_Pad1.15x1.40mm_HandSolder" V 1280 6600 50  0001 C CNN
F 3 "~" H 1350 6600 50  0001 C CNN
	1    1350 6600
	1    0    0    -1  
$EndComp
Wire Wire Line
	1950 6950 1950 6750
Connection ~ 1950 6450
$Comp
L Connector_Generic:Conn_01x04 J9
U 1 1 600F7284
P 1250 4450
F 0 "J9" H 1168 4025 50  0000 C CNN
F 1 "Fan1" H 1168 4116 50  0000 C CNN
F 2 "Connector_PinHeader_2.54mm:PinHeader_1x04_P2.54mm_Horizontal" H 1250 4450 50  0001 C CNN
F 3 "~" H 1250 4450 50  0001 C CNN
F 4 "538-171857-1004 (needs Modification, see also Fan2)" H 1250 4450 50  0001 C CNN "Mouser"
	1    1250 4450
	-1   0    0    -1  
$EndComp
Wire Wire Line
	3500 6950 3750 6950
Wire Wire Line
	3500 7100 3750 7100
Text Label 3550 6950 0    50   ~ 0
Fan1
Text Label 3550 7100 0    50   ~ 0
Fan2
Wire Wire Line
	3500 7550 3750 7550
Text Label 3550 7550 0    50   ~ 0
PWM
Text Label 1500 4450 0    50   ~ 0
Fan1
Text Label 1500 5300 0    50   ~ 0
Fan2
Text Label 1500 4350 0    50   ~ 0
PWM
Text Label 1500 5200 0    50   ~ 0
PWM
Wire Wire Line
	1450 4350 1650 4350
Wire Wire Line
	1450 4450 1650 4450
Wire Wire Line
	1450 5200 1650 5200
Wire Wire Line
	1450 5300 1650 5300
$Comp
L power:GND #PWR0155
U 1 1 601B3636
P 1550 4650
F 0 "#PWR0155" H 1550 4400 50  0001 C CNN
F 1 "GND" H 1555 4477 50  0000 C CNN
F 2 "" H 1550 4650 50  0001 C CNN
F 3 "" H 1550 4650 50  0001 C CNN
	1    1550 4650
	1    0    0    -1  
$EndComp
$Comp
L power:GND #PWR0156
U 1 1 601B3A16
P 1550 5500
F 0 "#PWR0156" H 1550 5250 50  0001 C CNN
F 1 "GND" H 1555 5327 50  0000 C CNN
F 2 "" H 1550 5500 50  0001 C CNN
F 3 "" H 1550 5500 50  0001 C CNN
	1    1550 5500
	1    0    0    -1  
$EndComp
$Comp
L power:+12V #PWR0157
U 1 1 601F527A
P 1800 4550
F 0 "#PWR0157" H 1800 4400 50  0001 C CNN
F 1 "+12V" H 1815 4723 50  0000 C CNN
F 2 "" H 1800 4550 50  0001 C CNN
F 3 "" H 1800 4550 50  0001 C CNN
	1    1800 4550
	1    0    0    -1  
$EndComp
Wire Wire Line
	1450 4550 1800 4550
$Comp
L power:+12V #PWR0158
U 1 1 6021A895
P 1800 5400
F 0 "#PWR0158" H 1800 5250 50  0001 C CNN
F 1 "+12V" H 1815 5573 50  0000 C CNN
F 2 "" H 1800 5400 50  0001 C CNN
F 3 "" H 1800 5400 50  0001 C CNN
	1    1800 5400
	1    0    0    -1  
$EndComp
Wire Wire Line
	1450 5400 1800 5400
$Comp
L Device:R R14
U 1 1 6022D542
P 3300 4850
F 0 "R14" H 3370 4896 50  0000 L CNN
F 1 "4k7" H 3370 4805 50  0000 L CNN
F 2 "Resistor_SMD:R_0805_2012Metric_Pad1.15x1.40mm_HandSolder" V 3230 4850 50  0001 C CNN
F 3 "~" H 3300 4850 50  0001 C CNN
	1    3300 4850
	1    0    0    -1  
$EndComp
$Comp
L Device:R R15
U 1 1 6022F9AB
P 3600 4850
F 0 "R15" H 3670 4896 50  0000 L CNN
F 1 "4k7" H 3670 4805 50  0000 L CNN
F 2 "Resistor_SMD:R_0805_2012Metric_Pad1.15x1.40mm_HandSolder" V 3530 4850 50  0001 C CNN
F 3 "~" H 3600 4850 50  0001 C CNN
	1    3600 4850
	1    0    0    -1  
$EndComp
$Comp
L Device:R R13
U 1 1 6022FC12
P 3000 4850
F 0 "R13" H 3070 4896 50  0000 L CNN
F 1 "4k7" H 3070 4805 50  0000 L CNN
F 2 "Resistor_SMD:R_0805_2012Metric_Pad1.15x1.40mm_HandSolder" V 2930 4850 50  0001 C CNN
F 3 "~" H 3000 4850 50  0001 C CNN
	1    3000 4850
	1    0    0    -1  
$EndComp
$Comp
L power:+3.3V #PWR0161
U 1 1 602309BF
P 3600 4700
F 0 "#PWR0161" H 3600 4550 50  0001 C CNN
F 1 "+3.3V" H 3615 4873 50  0000 C CNN
F 2 "" H 3600 4700 50  0001 C CNN
F 3 "" H 3600 4700 50  0001 C CNN
	1    3600 4700
	1    0    0    -1  
$EndComp
Text Label 3300 5200 1    50   ~ 0
Fan1
Text Label 3600 5200 1    50   ~ 0
Fan2
Wire Wire Line
	3600 5000 3600 5200
Wire Wire Line
	3300 5000 3300 5200
Text Label 3000 5150 1    50   ~ 0
PWM
Wire Wire Line
	3000 5000 3000 5150
$Comp
L Connector_Generic:Conn_01x04 J8
U 1 1 600F6660
P 1250 5300
F 0 "J8" H 1168 4875 50  0000 C CNN
F 1 "Fan2" H 1168 4966 50  0000 C CNN
F 2 "Connector_PinHeader_2.54mm:PinHeader_1x04_P2.54mm_Horizontal" H 1250 5300 50  0001 C CNN
F 3 "~" H 1250 5300 50  0001 C CNN
F 4 "PSS254/4W (needs Modification, see also Fan1)" H 1250 5300 50  0001 C CNN "Reichelt"
	1    1250 5300
	-1   0    0    -1  
$EndComp
Wire Wire Line
	1450 5500 1550 5500
Wire Wire Line
	1450 4650 1550 4650
$Comp
L Device:C C11
U 1 1 603A61F7
P 1550 8150
F 0 "C11" H 1665 8196 50  0000 L CNN
F 1 "3.3nF" H 1665 8105 50  0000 L CNN
F 2 "Capacitor_SMD:C_0805_2012Metric_Pad1.15x1.40mm_HandSolder" H 1588 8000 50  0001 C CNN
F 3 "~" H 1550 8150 50  0001 C CNN
	1    1550 8150
	-1   0    0    1   
$EndComp
$Comp
L Connector_Generic:Conn_01x02 J10
U 1 1 6036BB11
P 950 8200
F 0 "J10" H 868 7875 50  0000 C CNN
F 1 "TEMP1" H 868 7966 50  0000 C CNN
F 2 "Connector_PinHeader_2.54mm:PinHeader_1x02_P2.54mm_Horizontal" H 950 8200 50  0001 C CNN
F 3 "~" H 950 8200 50  0001 C CNN
	1    950  8200
	-1   0    0    1   
$EndComp
Wire Wire Line
	1950 8150 1850 8150
Wire Wire Line
	1550 8000 1950 8000
Text Label 1650 8000 0    50   ~ 0
DXP
Text Label 1650 8300 0    50   ~ 0
DXN
Wire Wire Line
	3000 4700 3300 4700
Wire Wire Line
	3300 4700 3600 4700
Connection ~ 3300 4700
Connection ~ 3600 4700
Wire Wire Line
	1650 6750 1650 7100
Wire Wire Line
	1650 7100 1950 7100
Wire Wire Line
	1350 7250 1350 6750
Wire Wire Line
	1350 7250 1950 7250
Wire Wire Line
	1350 6450 1650 6450
Wire Wire Line
	1650 6450 1950 6450
Connection ~ 1650 6450
Wire Wire Line
	2700 6450 2700 6550
Wire Wire Line
	1550 8300 1850 8300
Wire Wire Line
	1850 8150 1850 8300
Wire Wire Line
	1550 8000 1150 8000
Wire Wire Line
	1150 8000 1150 8100
Connection ~ 1550 8000
Wire Wire Line
	1150 8200 1150 8300
Wire Wire Line
	1150 8300 1550 8300
Connection ~ 1550 8300
Wire Wire Line
	1950 6450 2700 6450
Wire Wire Line
	1950 6450 1950 6250
Wire Notes Line
	4100 4000 4100 10300
Wire Notes Line
	600  10300 600  4000
Wire Notes Line
	7150 4000 7150 10300
Wire Notes Line
	600  4000 7150 4000
Wire Notes Line
	600  10300 7150 10300
Text Notes 1800 3950 0    50   ~ 0
Fan Controller (optional)
Text Notes 5150 3950 0    50   ~ 0
Voltage/Temp Monitor (optional)
Wire Wire Line
	13750 2650 14350 2650
Wire Wire Line
	14350 2650 14350 3500
Connection ~ 14350 2650
Wire Wire Line
	14350 2650 14400 2650
NoConn ~ 9650 5500
Wire Wire Line
	2450 8500 2650 8500
Connection ~ 2650 8500
Wire Wire Line
	2650 8500 2850 8500
Connection ~ 2850 8500
Wire Wire Line
	2850 8500 3050 8500
Connection ~ 3050 8500
Text Notes 3125 2350 0    50   ~ 0
Here we have a bug: EAD21 and EAD22 are swapped.\nThis works (by accident) with Kickstarts up to 3.2 and \navailable Ex slots but would fail if the PIC was assigned \nto 0x20xxxx or 0xB0xxxx.\nWorkaround in Firmware (see IcyCPLD.ucf) ...
$EndSCHEMATC
